fpga2/frame_dismantle.vcd
$date
	Fri Dec 09 20:47:39 2022
$end
$version
	Icarus Verilog
$end
$timescale
	1ps
$end
$scope module frame_dismantle_tb $end
$var wire 1 ! vout $end
$var wire 1 " vauxout $end
$var wire 1 # out_channel $end
$var wire 1 $ kill $end
$var wire 1 % in_channel $end
$var wire 20 & dout [19:0] $end
$var wire 1 ' done $end
$var wire 4 ( dauxout [3:0] $end
$var wire 1 ) channelvout $end
$var wire 192 * channeldout [191:0] $end
$var wire 1 + bmc_vout $end
$var wire 8 , bmc_frame_counter [7:0] $end
$var wire 1 - bmc_dout $end
$var reg 1 . clk $end
$var reg 1 / din $end
$var reg 1 0 rst $end
$var reg 64 1 test3_channelA [63:0] $end
$var reg 64 2 test3_channelB [63:0] $end
$var reg 64 3 test3_channelZ [63:0] $end
$var reg 1 4 vin $end
$scope module my_biphasemark_decode $end
$var wire 1 . clk $end
$var wire 1 / din $end
$var wire 1 0 rst $end
$var wire 1 4 vin $end
$var reg 2 5 bmc_buffer [1:0] $end
$var reg 1 6 bmc_counter $end
$var reg 1 % channel $end
$var reg 7 7 data_counter [6:0] $end
$var reg 1 - dout $end
$var reg 8 8 frame_counter [7:0] $end
$var reg 1 9 has_preamble_ended $end
$var reg 8 : preamble_buffer [7:0] $end
$var reg 8 ; preamble_counter [7:0] $end
$var reg 1 + vout $end
$upscope $end
$scope module my_frame_dismantle $end
$var wire 1 . clk $end
$var wire 1 - din $end
$var wire 8 < frame_counter [7:0] $end
$var wire 1 % in_channel $end
$var wire 1 # out_channel $end
$var wire 1 0 rst $end
$var wire 1 + vin $end
$var wire 8 = axiod_crc [7:0] $end
$var reg 4 > aux_buffer [3:0] $end
$var reg 8 ? axiid_crc [7:0] $end
$var reg 1 @ axiiv_crc $end
$var reg 192 A channel_buffer [191:0] $end
$var reg 3 B channel_counter [2:0] $end
$var reg 192 C channeldout [191:0] $end
$var reg 1 ) channelvout $end
$var reg 20 D data_buffer [19:0] $end
$var reg 4 E dauxout [3:0] $end
$var reg 1 ' done $end
$var reg 20 F dout [19:0] $end
$var reg 1 G evenparitytracker $end
$var reg 1 H invalid $end
$var reg 1 $ kill $end
$var reg 1 I soft_reset_i $end
$var reg 5 J subframe_counter [4:0] $end
$var reg 1 " vauxout $end
$var reg 1 ! vout $end
$var integer 32 K subframestate [31:0] $end
$scope module my_crc_calc $end
$var wire 1 . clk_i $end
$var wire 8 L crc_o [7:0] $end
$var wire 8 M data_i [7:0] $end
$var wire 1 0 rst_i $end
$var wire 1 I soft_reset_i $end
$var wire 1 @ valid_i $end
$var parameter 32 N CRC_SIZE $end
$var parameter 32 O DATA_WIDTH $end
$var parameter 64 P INIT $end
$var parameter 64 Q POLY $end
$var parameter 32 R REF_IN $end
$var parameter 32 S REF_OUT $end
$var parameter 64 T XOR_OUT $end
$var reg 8 U crc [7:0] $end
$var reg 8 V crc_next [7:0] $end
$var reg 8 W crc_prev [7:0] $end
$scope begin ref_out_ref_in $end
$scope begin $ivl_for_loop8 $end
$var integer 32 X i [31:0] $end
$scope begin $ivl_for_loop9 $end
$var integer 32 Y j [31:0] $end
$upscope $end
$upscope $end
$upscope $end
$upscope $end
$upscope $end
$scope begin $ivl_for_loop0 $end
$var integer 32 Z i [31:0] $end
$scope begin $ivl_for_loop1 $end
$var integer 32 [ j [31:0] $end
$upscope $end
$scope begin $ivl_for_loop2 $end
$var integer 32 \ j [31:0] $end
$upscope $end
$scope begin $ivl_for_loop3 $end
$var integer 32 ] j [31:0] $end
$upscope $end
$upscope $end
$scope begin $ivl_for_loop4 $end
$var integer 32 ^ i [31:0] $end
$scope begin $ivl_for_loop5 $end
$var integer 32 _ j [31:0] $end
$upscope $end
$scope begin $ivl_for_loop6 $end
$var integer 32 ` j [31:0] $end
$upscope $end
$scope begin $ivl_for_loop7 $end
$var integer 32 a j [31:0] $end
$upscope $end
$upscope $end
$upscope $end
$enddefinitions $end
$comment Show the parameter values. $end
$dumpall
b0 T
b1 S
b1 R
b11101 Q
b11111111 P
b1000 O
b1000 N
$end
#0
$dumpvars
b0 a
b0 `
b0 _
b0 ^
b0 ]
b0 \
b0 [
b0 Z
b0 Y
b0 X
bx W
bx V
bx U
bx M
bx L
b0 K
bx J
xI
xH
xG
bx F
bx E
bx D
bx C
bx B
bx A
x@
bx ?
bx >
bx =
bx <
bx ;
bx :
x9
bx 8
bx 7
x6
bx 5
x4
b1110100011001100101010101010101010101010101010101010101011010100 3
b1110010011001100101010101010101010101010101010101010101011010100 2
b1110001011001100101010101010101010101010101010101010101011010100 1
00
x/
0.
x-
bx ,
x+
bx *
x)
bx (
x'
bx &
x%
x$
x#
x"
x!
$end
#10000
06
0+
b0 7
1.
#20000
0.
10
#30000
b1000 X
b1000 Y
b100011 W
b100011 V
b11111111 =
b11111111 L
0#
0%
b0 5
b0 ;
09
b0 ,
b0 8
b0 <
0'
0$
b0 B
0G
0H
b0 ?
b0 M
0@
b0 A
b0 D
b0 >
b0 J
b11111111 U
1.
#40000
0.
00
#50000
1.
#60000
0.
#70000
bx1 :
1.
1/
14
#80000
0.
#90000
bx11 :
1.
b1 [
#100000
0.
#110000
bx111 :
1.
b10 [
#120000
0.
#130000
bx1110 :
1.
0/
b11 [
#140000
0.
#150000
bx11101 :
1.
1/
b100 [
#160000
0.
#170000
bx111010 :
1.
0/
b101 [
#180000
0.
#190000
bx1110100 :
1.
b110 [
#200000
0.
#210000
19
b11101000 :
1.
b111 [
#220000
0.
#230000
b1 5
b1 7
16
1.
1/
b1000 [
#240000
0.
#250000
b11 5
b10 7
06
1.
b1001 [
#260000
0.
#270000
0-
1+
b10 5
b11 7
16
1.
0/
b1010 [
#280000
0.
#290000
b1 J
0)
0"
0!
0+
b0 5
b100 7
06
1.
b1011 [
#300000
0.
#310000
1+
b1 5
b101 7
16
1.
1/
b1100 [
#320000
0.
#330000
b10 J
0+
b11 5
b110 7
06
1.
b1101 [
#340000
0.
#350000
1+
b10 5
b111 7
16
1.
0/
b1110 [
#360000
0.
#370000
b11 J
0+
b0 5
b1000 7
06
1.
b1111 [
#380000
0.
#390000
1+
b1 5
b1001 7
16
1.
1/
b10000 [
#400000
0.
#410000
b1 K
b100 J
0+
b10 5
b1010 7
06
1.
0/
b10001 [
#420000
0.
#430000
1-
1+
b1 5
b1011 7
16
1.
1/
b10010 [
#440000
0.
#450000
b1 D
b101 J
1G
0+
b10 5
b1100 7
06
1.
0/
b10011 [
#460000
0.
#470000
1+
b1 5
b1101 7
16
1.
1/
b10100 [
#480000
0.
#490000
b11 D
b110 J
0G
0+
b10 5
b1110 7
06
1.
0/
b10101 [
#500000
0.
#510000
1+
b1 5
b1111 7
16
1.
1/
b10110 [
#520000
0.
#530000
b111 D
b111 J
1G
0+
b10 5
b10000 7
06
1.
0/
b10111 [
#540000
0.
#550000
1+
b1 5
b10001 7
16
1.
1/
b11000 [
#560000
0.
#570000
b1111 D
b1000 J
0G
0+
b10 5
b10010 7
06
1.
0/
b11001 [
#580000
0.
#590000
1+
b1 5
b10011 7
16
1.
1/
b11010 [
#600000
0.
#610000
b11111 D
b1001 J
1G
0+
b10 5
b10100 7
06
1.
0/
b11011 [
#620000
0.
#630000
1+
b1 5
b10101 7
16
1.
1/
b11100 [
#640000
0.
#650000
b111111 D
b1010 J
0G
0+
b10 5
b10110 7
06
1.
0/
b11101 [
#660000
0.
#670000
1+
b1 5
b10111 7
16
1.
1/
b11110 [
#680000
0.
#690000
b1111111 D
b1011 J
1G
0+
b10 5
b11000 7
06
1.
0/
b11111 [
#700000
0.
#710000
1+
b1 5
b11001 7
16
1.
1/
b100000 [
#720000
0.
#730000
b11111111 D
b1100 J
0G
0+
b10 5
b11010 7
06
1.
0/
b100001 [
#740000
0.
#750000
1+
b1 5
b11011 7
16
1.
1/
b100010 [
#760000
0.
#770000
b111111111 D
b1101 J
1G
0+
b10 5
b11100 7
06
1.
0/
b100011 [
#780000
0.
#790000
1+
b1 5
b11101 7
16
1.
1/
b100100 [
#800000
0.
#810000
b1111111111 D
b1110 J
0G
0+
b10 5
b11110 7
06
1.
0/
b100101 [
#820000
0.
#830000
1+
b1 5
b11111 7
16
1.
1/
b100110 [
#840000
0.
#850000
b11111111111 D
b1111 J
1G
0+
b10 5
b100000 7
06
1.
0/
b100111 [
#860000
0.
#870000
1+
b1 5
b100001 7
16
1.
1/
b101000 [
#880000
0.
#890000
b111111111111 D
b10000 J
0G
0+
b10 5
b100010 7
06
1.
0/
b101001 [
#900000
0.
#910000
1+
b1 5
b100011 7
16
1.
1/
b101010 [
#920000
0.
#930000
b1111111111111 D
b10001 J
1G
0+
b10 5
b100100 7
06
1.
0/
b101011 [
#940000
0.
#950000
1+
b1 5
b100101 7
16
1.
1/
b101100 [
#960000
0.
#970000
b11111111111111 D
b10010 J
0G
0+
b10 5
b100110 7
06
1.
0/
b101101 [
#980000
0.
#990000
1+
b1 5
b100111 7
16
1.
1/
b101110 [
#1000000
0.
#1010000
b111111111111111 D
b10011 J
1G
0+
b10 5
b101000 7
06
1.
0/
b101111 [
#1020000
0.
#1030000
1+
b1 5
b101001 7
16
1.
1/
b110000 [
#1040000
0.
#1050000
b1111111111111111 D
b10100 J
0G
0+
b10 5
b101010 7
06
1.
0/
b110001 [
#1060000
0.
#1070000
1+
b1 5
b101011 7
16
1.
1/
b110010 [
#1080000
0.
#1090000
b11111111111111111 D
b10101 J
1G
0+
b10 5
b101100 7
06
1.
0/
b110011 [
#1100000
0.
#1110000
1+
b1 5
b101101 7
16
1.
1/
b110100 [
#1120000
0.
#1130000
b111111111111111111 D
b10110 J
0G
0+
b10 5
b101110 7
06
1.
0/
b110101 [
#1140000
0.
#1150000
1+
b1 5
b101111 7
16
1.
1/
b110110 [
#1160000
0.
#1170000
b1111111111111111111 D
b10111 J
1G
0+
b10 5
b110000 7
06
1.
0/
b110111 [
#1180000
0.
#1190000
1+
b1 5
b110001 7
16
1.
1/
b111000 [
#1200000
0.
#1210000
b10 K
b11111111111111111111 D
b11000 J
0G
0+
b11 5
b110010 7
06
1.
b111001 [
#1220000
0.
#1230000
0-
1+
b10 5
b110011 7
16
1.
0/
b111010 [
#1240000
0.
#1250000
b11 K
b11001 J
0+
b1 5
b110100 7
06
1.
1/
b111011 [
#1260000
0.
#1270000
1-
1+
b10 5
b110101 7
16
1.
0/
b111100 [
#1280000
0.
#1290000
b100 K
b11010 J
1G
0+
b1 5
b110110 7
06
1.
1/
b111101 [
#1300000
0.
#1310000
1+
b10 5
b110111 7
16
1.
0/
b111110 [
#1320000
0.
#1330000
b1 B
b1 A
b101 K
b11011 J
0G
0+
b0 5
b111000 7
06
1.
b111111 [
#1340000
0.
#1350000
0-
1+
b1 5
b111001 7
16
1.
1/
b1 Z
b1000000 [
#1360000
0.
#1370000
1"
1!
b0 (
b0 E
b11111111111111111111 &
b11111111111111111111 F
b0 D
b0 J
b0 K
bx11 :
09
0+
b11 5
b111010 7
06
1.
b1 ]
#1380000
0.
#1390000
b0 7
bx111 :
1.
b10 ]
#1400000
0.
#1410000
bx1110 :
1.
0/
b11 ]
#1420000
0.
#1430000
bx11100 :
1.
b100 ]
#1440000
0.
#1450000
bx111001 :
1.
1/
b101 ]
#1460000
0.
#1470000
bx1110010 :
1.
0/
b110 ]
#1480000
0.
#1490000
1#
1%
19
b11100100 :
1.
b111 ]
#1500000
0.
#1510000
b1 7
16
1.
1/
b1000 ]
#1520000
0.
#1530000
b10 7
06
1.
b1001 ]
#1540000
0.
#1550000
1+
b10 5
b11 7
16
1.
0/
b1010 ]
#1560000
0.
#1570000
b1 J
0"
0!
0+
b0 5
b100 7
06
1.
b1011 ]
#1580000
0.
#1590000
1+
b1 5
b101 7
16
1.
1/
b1100 ]
#1600000
0.
#1610000
b10 J
0+
b11 5
b110 7
06
1.
b1101 ]
#1620000
0.
#1630000
1+
b10 5
b111 7
16
1.
0/
b1110 ]
#1640000
0.
#1650000
b11 J
0+
b0 5
b1000 7
06
1.
b1111 ]
#1660000
0.
#1670000
1+
b1 5
b1001 7
16
1.
1/
b10000 ]
#1680000
0.
#1690000
b1 K
b100 J
0+
b10 5
b1010 7
06
1.
0/
b10001 ]
#1700000
0.
#1710000
1-
1+
b1 5
b1011 7
16
1.
1/
b10010 ]
#1720000
0.
#1730000
b101 J
1G
0+
b10 5
b1100 7
06
1.
0/
b10011 ]
#1740000
0.
#1750000
1+
b1 5
b1101 7
16
1.
1/
b10100 ]
#1760000
0.
#1770000
b110 J
0G
0+
b10 5
b1110 7
06
1.
0/
b10101 ]
#1780000
0.
#1790000
1+
b1 5
b1111 7
16
1.
1/
b10110 ]
#1800000
0.
#1810000
b111 J
1G
0+
b10 5
b10000 7
06
1.
0/
b10111 ]
#1820000
0.
#1830000
1+
b1 5
b10001 7
16
1.
1/
b11000 ]
#1840000
0.
#1850000
b1000 J
0G
0+
b10 5
b10010 7
06
1.
0/
b11001 ]
#1860000
0.
#1870000
1+
b1 5
b10011 7
16
1.
1/
b11010 ]
#1880000
0.
#1890000
b1001 J
1G
0+
b10 5
b10100 7
06
1.
0/
b11011 ]
#1900000
0.
#1910000
1+
b1 5
b10101 7
16
1.
1/
b11100 ]
#1920000
0.
#1930000
b1010 J
0G
0+
b10 5
b10110 7
06
1.
0/
b11101 ]
#1940000
0.
#1950000
1+
b1 5
b10111 7
16
1.
1/
b11110 ]
#1960000
0.
#1970000
b1011 J
1G
0+
b10 5
b11000 7
06
1.
0/
b11111 ]
#1980000
0.
#1990000
1+
b1 5
b11001 7
16
1.
1/
b100000 ]
#2000000
0.
#2010000
b1100 J
0G
0+
b10 5
b11010 7
06
1.
0/
b100001 ]
#2020000
0.
#2030000
1+
b1 5
b11011 7
16
1.
1/
b100010 ]
#2040000
0.
#2050000
b1101 J
1G
0+
b10 5
b11100 7
06
1.
0/
b100011 ]
#2060000
0.
#2070000
1+
b1 5
b11101 7
16
1.
1/
b100100 ]
#2080000
0.
#2090000
b1110 J
0G
0+
b10 5
b11110 7
06
1.
0/
b100101 ]
#2100000
0.
#2110000
1+
b1 5
b11111 7
16
1.
1/
b100110 ]
#2120000
0.
#2130000
b1111 J
1G
0+
b10 5
b100000 7
06
1.
0/
b100111 ]
#2140000
0.
#2150000
1+
b1 5
b100001 7
16
1.
1/
b101000 ]
#2160000
0.
#2170000
b10000 J
0G
0+
b10 5
b100010 7
06
1.
0/
b101001 ]
#2180000
0.
#2190000
1+
b1 5
b100011 7
16
1.
1/
b101010 ]
#2200000
0.
#2210000
b10001 J
1G
0+
b10 5
b100100 7
06
1.
0/
b101011 ]
#2220000
0.
#2230000
1+
b1 5
b100101 7
16
1.
1/
b101100 ]
#2240000
0.
#2250000
b10010 J
0G
0+
b10 5
b100110 7
06
1.
0/
b101101 ]
#2260000
0.
#2270000
1+
b1 5
b100111 7
16
1.
1/
b101110 ]
#2280000
0.
#2290000
b10011 J
1G
0+
b10 5
b101000 7
06
1.
0/
b101111 ]
#2300000
0.
#2310000
1+
b1 5
b101001 7
16
1.
1/
b110000 ]
#2320000
0.
#2330000
b10100 J
0G
0+
b10 5
b101010 7
06
1.
0/
b110001 ]
#2340000
0.
#2350000
1+
b1 5
b101011 7
16
1.
1/
b110010 ]
#2360000
0.
#2370000
b10101 J
1G
0+
b10 5
b101100 7
06
1.
0/
b110011 ]
#2380000
0.
#2390000
1+
b1 5
b101101 7
16
1.
1/
b110100 ]
#2400000
0.
#2410000
b10110 J
0G
0+
b10 5
b101110 7
06
1.
0/
b110101 ]
#2420000
0.
#2430000
1+
b1 5
b101111 7
16
1.
1/
b110110 ]
#2440000
0.
#2450000
b10111 J
1G
0+
b10 5
b110000 7
06
1.
0/
b110111 ]
#2460000
0.
#2470000
1+
b1 5
b110001 7
16
1.
1/
b111000 ]
#2480000
0.
#2490000
b10 K
b11000 J
0G
0+
b11 5
b110010 7
06
1.
b111001 ]
#2500000
0.
#2510000
0-
1+
b10 5
b110011 7
16
1.
0/
b111010 ]
#2520000
0.
#2530000
b11 K
b11001 J
0+
b1 5
b110100 7
06
1.
1/
b111011 ]
#2540000
0.
#2550000
1-
1+
b10 5
b110101 7
16
1.
0/
b111100 ]
#2560000
0.
#2570000
b100 K
b11010 J
1G
0+
b1 5
b110110 7
06
1.
1/
b111101 ]
#2580000
0.
#2590000
1+
b10 5
b110111 7
16
1.
0/
b111110 ]
#2600000
0.
#2610000
b101 K
b11011 J
0G
0+
b0 5
b111000 7
06
1.
b111111 ]
#2620000
0.
#2630000
0-
1+
b1 5
b111001 7
16
1.
1/
b10 Z
b1000000 ]
#2640000
0.
#2650000
b0 J
b0 K
bx11 :
09
0+
b11 5
b111010 7
06
1.
b1 \
#2660000
0.
#2670000
b0 7
bx111 :
1.
b10 \
#2680000
0.
#2690000
bx1110 :
1.
0/
b11 \
#2700000
0.
#2710000
bx11100 :
1.
b100 \
#2720000
0.
#2730000
bx111000 :
1.
b101 \
#2740000
0.
#2750000
bx1110001 :
1.
1/
b110 \
#2760000
0.
#2770000
0#
0%
b1 ,
b1 8
b1 <
19
b11100010 :
1.
0/
b111 \
#2780000
0.
#2790000
b1 7
16
1.
1/
b1000 \
#2800000
0.
#2810000
b10 7
06
1.
b1001 \
#2820000
0.
#2830000
1+
b10 5
b11 7
16
1.
0/
b1010 \
#2840000
0.
#2850000
b1 J
0+
b0 5
b100 7
06
1.
b1011 \
#2860000
0.
#2870000
1+
b1 5
b101 7
16
1.
1/
b1100 \
#2880000
0.
#2890000
b10 J
0+
b11 5
b110 7
06
1.
b1101 \
#2900000
0.
#2910000
1+
b10 5
b111 7
16
1.
0/
b1110 \
#2920000
0.
#2930000
b11 J
0+
b0 5
b1000 7
06
1.
b1111 \
#2940000
0.
#2950000
1+
b1 5
b1001 7
16
1.
1/
b10000 \
#2960000
0.
#2970000
b1 K
b100 J
0+
b10 5
b1010 7
06
1.
0/
b10001 \
#2980000
0.
#2990000
1-
1+
b1 5
b1011 7
16
1.
1/
b10010 \
#3000000
0.
#3010000
b1 D
b101 J
1G
0+
b10 5
b1100 7
06
1.
0/
b10011 \
#3020000
0.
#3030000
1+
b1 5
b1101 7
16
1.
1/
b10100 \
#3040000
0.
#3050000
b11 D
b110 J
0G
0+
b10 5
b1110 7
06
1.
0/
b10101 \
#3060000
0.
#3070000
1+
b1 5
b1111 7
16
1.
1/
b10110 \
#3080000
0.
#3090000
b111 D
b111 J
1G
0+
b10 5
b10000 7
06
1.
0/
b10111 \
#3100000
0.
#3110000
1+
b1 5
b10001 7
16
1.
1/
b11000 \
#3120000
0.
#3130000
b1111 D
b1000 J
0G
0+
b10 5
b10010 7
06
1.
0/
b11001 \
#3140000
0.
#3150000
1+
b1 5
b10011 7
16
1.
1/
b11010 \
#3160000
0.
#3170000
b11111 D
b1001 J
1G
0+
b10 5
b10100 7
06
1.
0/
b11011 \
#3180000
0.
#3190000
1+
b1 5
b10101 7
16
1.
1/
b11100 \
#3200000
0.
#3210000
b111111 D
b1010 J
0G
0+
b10 5
b10110 7
06
1.
0/
b11101 \
#3220000
0.
#3230000
1+
b1 5
b10111 7
16
1.
1/
b11110 \
#3240000
0.
#3250000
b1111111 D
b1011 J
1G
0+
b10 5
b11000 7
06
1.
0/
b11111 \
#3260000
0.
#3270000
1+
b1 5
b11001 7
16
1.
1/
b100000 \
#3280000
0.
#3290000
b11111111 D
b1100 J
0G
0+
b10 5
b11010 7
06
1.
0/
b100001 \
#3300000
0.
#3310000
1+
b1 5
b11011 7
16
1.
1/
b100010 \
#3320000
0.
#3330000
b111111111 D
b1101 J
1G
0+
b10 5
b11100 7
06
1.
0/
b100011 \
#3340000
0.
#3350000
1+
b1 5
b11101 7
16
1.
1/
b100100 \
#3360000
0.
#3370000
b1111111111 D
b1110 J
0G
0+
b10 5
b11110 7
06
1.
0/
b100101 \
#3380000
0.
#3390000
1+
b1 5
b11111 7
16
1.
1/
b100110 \
#3400000
0.
#3410000
b11111111111 D
b1111 J
1G
0+
b10 5
b100000 7
06
1.
0/
b100111 \
#3420000
0.
#3430000
1+
b1 5
b100001 7
16
1.
1/
b101000 \
#3440000
0.
#3450000
b111111111111 D
b10000 J
0G
0+
b10 5
b100010 7
06
1.
0/
b101001 \
#3460000
0.
#3470000
1+
b1 5
b100011 7
16
1.
1/
b101010 \
#3480000
0.
#3490000
b1111111111111 D
b10001 J
1G
0+
b10 5
b100100 7
06
1.
0/
b101011 \
#3500000
0.
#3510000
1+
b1 5
b100101 7
16
1.
1/
b101100 \
#3520000
0.
#3530000
b11111111111111 D
b10010 J
0G
0+
b10 5
b100110 7
06
1.
0/
b101101 \
#3540000
0.
#3550000
1+
b1 5
b100111 7
16
1.
1/
b101110 \
#3560000
0.
#3570000
b111111111111111 D
b10011 J
1G
0+
b10 5
b101000 7
06
1.
0/
b101111 \
#3580000
0.
#3590000
1+
b1 5
b101001 7
16
1.
1/
b110000 \
#3600000
0.
#3610000
b1111111111111111 D
b10100 J
0G
0+
b10 5
b101010 7
06
1.
0/
b110001 \
#3620000
0.
#3630000
1+
b1 5
b101011 7
16
1.
1/
b110010 \
#3640000
0.
#3650000
b11111111111111111 D
b10101 J
1G
0+
b10 5
b101100 7
06
1.
0/
b110011 \
#3660000
0.
#3670000
1+
b1 5
b101101 7
16
1.
1/
b110100 \
#3680000
0.
#3690000
b111111111111111111 D
b10110 J
0G
0+
b10 5
b101110 7
06
1.
0/
b110101 \
#3700000
0.
#3710000
1+
b1 5
b101111 7
16
1.
1/
b110110 \
#3720000
0.
#3730000
b1111111111111111111 D
b10111 J
1G
0+
b10 5
b110000 7
06
1.
0/
b110111 \
#3740000
0.
#3750000
1+
b1 5
b110001 7
16
1.
1/
b111000 \
#3760000
0.
#3770000
b10 K
b11111111111111111111 D
b11000 J
0G
0+
b11 5
b110010 7
06
1.
b111001 \
#3780000
0.
#3790000
0-
1+
b10 5
b110011 7
16
1.
0/
b111010 \
#3800000
0.
#3810000
b11 K
b11001 J
0+
b1 5
b110100 7
06
1.
1/
b111011 \
#3820000
0.
#3830000
1-
1+
b10 5
b110101 7
16
1.
0/
b111100 \
#3840000
0.
#3850000
b100 K
b11010 J
1G
0+
b1 5
b110110 7
06
1.
1/
b111101 \
#3860000
0.
#3870000
1+
b10 5
b110111 7
16
1.
0/
b111110 \
#3880000
0.
#3890000
b10 B
b11 A
b101 K
b11011 J
0G
0+
b0 5
b111000 7
06
1.
b111111 \
#3900000
0.
#3910000
0-
1+
b1 5
b111001 7
16
1.
1/
b0 ]
b11 Z
b1000000 \
#3920000
0.
#3930000
1"
1!
b0 D
b0 J
b0 K
bx11 :
09
0+
b11 5
b111010 7
06
1.
b1 ]
#3940000
0.
#3950000
b0 7
bx111 :
1.
b10 ]
#3960000
0.
#3970000
bx1110 :
1.
0/
b11 ]
#3980000
0.
#3990000
bx11100 :
1.
b100 ]
#4000000
0.
#4010000
bx111001 :
1.
1/
b101 ]
#4020000
0.
#4030000
bx1110010 :
1.
0/
b110 ]
#4040000
0.
#4050000
1#
1%
19
b11100100 :
1.
b111 ]
#4060000
0.
#4070000
b1 7
16
1.
1/
b1000 ]
#4080000
0.
#4090000
b10 7
06
1.
b1001 ]
#4100000
0.
#4110000
1+
b10 5
b11 7
16
1.
0/
b1010 ]
#4120000
0.
#4130000
b1 J
0"
0!
0+
b0 5
b100 7
06
1.
b1011 ]
#4140000
0.
#4150000
1+
b1 5
b101 7
16
1.
1/
b1100 ]
#4160000
0.
#4170000
b10 J
0+
b11 5
b110 7
06
1.
b1101 ]
#4180000
0.
#4190000
1+
b10 5
b111 7
16
1.
0/
b1110 ]
#4200000
0.
#4210000
b11 J
0+
b0 5
b1000 7
06
1.
b1111 ]
#4220000
0.
#4230000
1+
b1 5
b1001 7
16
1.
1/
b10000 ]
#4240000
0.
#4250000
b1 K
b100 J
0+
b10 5
b1010 7
06
1.
0/
b10001 ]
#4260000
0.
#4270000
1-
1+
b1 5
b1011 7
16
1.
1/
b10010 ]
#4280000
0.
#4290000
b101 J
1G
0+
b10 5
b1100 7
06
1.
0/
b10011 ]
#4300000
0.
#4310000
1+
b1 5
b1101 7
16
1.
1/
b10100 ]
#4320000
0.
#4330000
b110 J
0G
0+
b10 5
b1110 7
06
1.
0/
b10101 ]
#4340000
0.
#4350000
1+
b1 5
b1111 7
16
1.
1/
b10110 ]
#4360000
0.
#4370000
b111 J
1G
0+
b10 5
b10000 7
06
1.
0/
b10111 ]
#4380000
0.
#4390000
1+
b1 5
b10001 7
16
1.
1/
b11000 ]
#4400000
0.
#4410000
b1000 J
0G
0+
b10 5
b10010 7
06
1.
0/
b11001 ]
#4420000
0.
#4430000
1+
b1 5
b10011 7
16
1.
1/
b11010 ]
#4440000
0.
#4450000
b1001 J
1G
0+
b10 5
b10100 7
06
1.
0/
b11011 ]
#4460000
0.
#4470000
1+
b1 5
b10101 7
16
1.
1/
b11100 ]
#4480000
0.
#4490000
b1010 J
0G
0+
b10 5
b10110 7
06
1.
0/
b11101 ]
#4500000
0.
#4510000
1+
b1 5
b10111 7
16
1.
1/
b11110 ]
#4520000
0.
#4530000
b1011 J
1G
0+
b10 5
b11000 7
06
1.
0/
b11111 ]
#4540000
0.
#4550000
1+
b1 5
b11001 7
16
1.
1/
b100000 ]
#4560000
0.
#4570000
b1100 J
0G
0+
b10 5
b11010 7
06
1.
0/
b100001 ]
#4580000
0.
#4590000
1+
b1 5
b11011 7
16
1.
1/
b100010 ]
#4600000
0.
#4610000
b1101 J
1G
0+
b10 5
b11100 7
06
1.
0/
b100011 ]
#4620000
0.
#4630000
1+
b1 5
b11101 7
16
1.
1/
b100100 ]
#4640000
0.
#4650000
b1110 J
0G
0+
b10 5
b11110 7
06
1.
0/
b100101 ]
#4660000
0.
#4670000
1+
b1 5
b11111 7
16
1.
1/
b100110 ]
#4680000
0.
#4690000
b1111 J
1G
0+
b10 5
b100000 7
06
1.
0/
b100111 ]
#4700000
0.
#4710000
1+
b1 5
b100001 7
16
1.
1/
b101000 ]
#4720000
0.
#4730000
b10000 J
0G
0+
b10 5
b100010 7
06
1.
0/
b101001 ]
#4740000
0.
#4750000
1+
b1 5
b100011 7
16
1.
1/
b101010 ]
#4760000
0.
#4770000
b10001 J
1G
0+
b10 5
b100100 7
06
1.
0/
b101011 ]
#4780000
0.
#4790000
1+
b1 5
b100101 7
16
1.
1/
b101100 ]
#4800000
0.
#4810000
b10010 J
0G
0+
b10 5
b100110 7
06
1.
0/
b101101 ]
#4820000
0.
#4830000
1+
b1 5
b100111 7
16
1.
1/
b101110 ]
#4840000
0.
#4850000
b10011 J
1G
0+
b10 5
b101000 7
06
1.
0/
b101111 ]
#4860000
0.
#4870000
1+
b1 5
b101001 7
16
1.
1/
b110000 ]
#4880000
0.
#4890000
b10100 J
0G
0+
b10 5
b101010 7
06
1.
0/
b110001 ]
#4900000
0.
#4910000
1+
b1 5
b101011 7
16
1.
1/
b110010 ]
#4920000
0.
#4930000
b10101 J
1G
0+
b10 5
b101100 7
06
1.
0/
b110011 ]
#4940000
0.
#4950000
1+
b1 5
b101101 7
16
1.
1/
b110100 ]
#4960000
0.
#4970000
b10110 J
0G
0+
b10 5
b101110 7
06
1.
0/
b110101 ]
#4980000
0.
#4990000
1+
b1 5
b101111 7
16
1.
1/
b110110 ]
#5000000
0.
#5010000
b10111 J
1G
0+
b10 5
b110000 7
06
1.
0/
b110111 ]
#5020000
0.
#5030000
1+
b1 5
b110001 7
16
1.
1/
b111000 ]
#5040000
0.
#5050000
b10 K
b11000 J
0G
0+
b11 5
b110010 7
06
1.
b111001 ]
#5060000
0.
#5070000
0-
1+
b10 5
b110011 7
16
1.
0/
b111010 ]
#5080000
0.
#5090000
b11 K
b11001 J
0+
b1 5
b110100 7
06
1.
1/
b111011 ]
#5100000
0.
#5110000
1-
1+
b10 5
b110101 7
16
1.
0/
b111100 ]
#5120000
0.
#5130000
b100 K
b11010 J
1G
0+
b1 5
b110110 7
06
1.
1/
b111101 ]
#5140000
0.
#5150000
1+
b10 5
b110111 7
16
1.
0/
b111110 ]
#5160000
0.
#5170000
b101 K
b11011 J
0G
0+
b0 5
b111000 7
06
1.
b111111 ]
#5180000
0.
#5190000
0-
1+
b1 5
b111001 7
16
1.
1/
b0 \
b100 Z
b1000000 ]
#5200000
0.
#5210000
b0 J
b0 K
bx11 :
09
0+
b11 5
b111010 7
06
1.
b1 \
#5220000
0.
#5230000
b0 7
bx111 :
1.
b10 \
#5240000
0.
#5250000
bx1110 :
1.
0/
b11 \
#5260000
0.
#5270000
bx11100 :
1.
b100 \
#5280000
0.
#5290000
bx111000 :
1.
b101 \
#5300000
0.
#5310000
bx1110001 :
1.
1/
b110 \
#5320000
0.
#5330000
0#
0%
b10 ,
b10 8
b10 <
19
b11100010 :
1.
0/
b111 \
#5340000
0.
#5350000
b1 7
16
1.
1/
b1000 \
#5360000
0.
#5370000
b10 7
06
1.
b1001 \
#5380000
0.
#5390000
1+
b10 5
b11 7
16
1.
0/
b1010 \
#5400000
0.
#5410000
b1 J
0+
b0 5
b100 7
06
1.
b1011 \
#5420000
0.
#5430000
1+
b1 5
b101 7
16
1.
1/
b1100 \
#5440000
0.
#5450000
b10 J
0+
b11 5
b110 7
06
1.
b1101 \
#5460000
0.
#5470000
1+
b10 5
b111 7
16
1.
0/
b1110 \
#5480000
0.
#5490000
b11 J
0+
b0 5
b1000 7
06
1.
b1111 \
#5500000
0.
#5510000
1+
b1 5
b1001 7
16
1.
1/
b10000 \
#5520000
0.
#5530000
b1 K
b100 J
0+
b10 5
b1010 7
06
1.
0/
b10001 \
#5540000
0.
#5550000
1-
1+
b1 5
b1011 7
16
1.
1/
b10010 \
#5560000
0.
#5570000
b1 D
b101 J
1G
0+
b10 5
b1100 7
06
1.
0/
b10011 \
