fpga2/.Xil/Vivado-506845-EECS-DIGITAL-04/hw_ila_data_1/zip_work/waveform.vcd
$date
        2022-Dec-13 18:34:29
$end
$version
        Vivado v2022.1 (64-bit)
$end
$timescale
        1ps
$end
$scope module dut $end
$var reg 192 " my_frame_dismantle/channel_buffer [191:0] $end
$var reg 8 &# my_frame_dismantle/frame_counter [7:0] $end
$var reg 8 .# my_frame_dismantle/axiod_crc [7:0] $end
$var reg 1 6# _TRIGGER $end
$var reg 1 7# _WINDOW $end
$var reg 1 8# _GAP $end
$upscope $end
$enddefinitions $end
#0
$dumpvars
b10100001001010011011101100101001001100000000000000000010000100111001100110111111111110010011000011101110101110101001100100100010001000000001100110000010001101110100100111001101110100010000 "
b10111011 &#
b0 .#
06#
17#
08#
$end
#202
b10111100 &#
#731
b101000010010100110111011001010010011000000000000000000100001001110011001101111111111100100110000111011101011101010011001001000100010000000011001100000100011011101001001110011011101000100000 "
#1457
b10111101 &#
#1986
b1010000100101001101110110010100100110000000000000000001000010011100110011011111111111001001100001110111010111010100110010010001000100000000110011000001000110111010010011100110111010001000000 "
#2711
b10111110 &#
#3240
b10100001001010011011101100101001001100000000000000000010000100111001100110111111111110010011000011101110101110101001100100100010001000000001100110000010001101110100100111001101110100010000000 "
#3966
b10111111 &#
#4096
16#
#4495
b101000010010100110111011001010010011000000000000000000100001001110011001101111111111100100110000111011101011101010011001001000100010000000011001100000100011011101001001110011011101000100000000 "
#5143
b11111111 .#
#5218
b0 &#
#5239
b0 "
#5750
b1 "
#6474
b1 &#
#7003
b10 "
#7729
b10 &#
