fpga2/.Xil/Vivado-487206-EECS-DIGITAL-04/hw_ila_data_1/zip_work/waveform.vcd
$date
        2022-Dec-13 17:31:30
$end
$version
        Vivado v2022.1 (64-bit)
$end
$timescale
        1ps
$end
$scope module dut $end
$var reg 1 " jcinput_IBUF $end
$var reg 1 # rec_dout $end
$var reg 1 $ rec_vout $end
$var reg 1 % bmc_dout $end
$var reg 1 & bmc_vout $end
$var reg 1 ' _TRIGGER $end
$var reg 1 ( _WINDOW $end
$var reg 1 ) _GAP $end
$upscope $end
$enddefinitions $end
#0
$dumpvars
0"
0#
0$
0%
0&
0'
1(
0)
$end
#2
1$
#3
1"
0$
#12
1#
1$
#13
0"
0$
1%
1&
#14
0#
0&
#22
1$
#23
0$
#31
1$
#32
1"
0$
0%
1&
#33
0&
#41
1#
1$
#42
0$
#50
1$
#51
0$
1&
#52
0"
0&
#53
0#
#61
1$
#62
0$
#70
1$
#71
1"
0$
1&
#72
0&
#80
1#
1$
#81
0$
#89
1$
#90
0$
1&
#91
0"
0&
#92
0#
#100
1$
#101
0$
#109
1$
#110
1"
0$
1&
#111
0&
#119
1#
1$
#120
0$
#128
1$
#129
0$
#137
1$
#138
0$
#140
0"
#141
0#
#149
1$
#150
0$
#158
1$
#159
0$
#167
1$
#168
0$
#169
1"
#178
1#
1$
#179
0"
0$
#180
0#
#188
1$
#189
1"
0$
#198
1#
1$
#199
0$
#207
1$
#208
0$
1&
#209
0"
0&
#210
0#
#218
1$
#219
0$
#227
1$
#228
1"
0$
1&
#229
0&
#237
1#
1$
#238
0$
#246
1$
#247
0$
1&
#248
0"
0&
#249
0#
#257
1$
#258
0$
#266
1$
#267
1"
0$
1&
#268
0&
#276
1#
1$
#277
0"
0$
#279
0#
#287
1"
1$
#288
0$
1%
1&
#289
0&
#296
1#
1$
#297
0$
#305
1$
#306
0$
0%
1&
#307
0"
0&
#308
0#
#316
1"
1$
#317
0$
#325
1#
1$
#326
0"
0$
1%
1&
#327
0&
#328
0#
#336
1$
#337
0$
#345
1$
#346
1"
0$
0%
1&
#347
0&
#355
1#
1$
#356
0"
0$
#357
0#
#365
1"
1$
#366
0$
1%
1&
#367
0&
#374
1#
1$
#375
0$
#383
1$
#384
0$
0%
1&
#385
0"
0&
#386
0#
#394
1$
#395
1"
0$
#404
1#
1$
#405
0"
0$
1%
1&
#406
0#
0&
#414
1$
#415
0$
#423
1$
#424
1"
0$
0%
1&
#425
0&
#433
1#
1$
#434
0"
0$
#435
0#
#443
1$
#444
1"
0$
1%
1&
#445
0&
#453
1#
1$
#454
0$
#462
1$
#463
0$
0%
1&
#464
0"
0&
#465
0#
#473
1"
1$
#474
0$
#482
1#
1$
#483
0"
0$
1%
1&
#484
0#
0&
#492
1$
#493
0$
#501
1$
#502
0$
0%
1&
#503
1"
0&
#512
1#
1$
#513
0"
0$
#514
0#
#522
1"
1$
#523
0$
1%
1&
#524
0&
#531
1#
1$
#532
0$
#540
1$
#541
0$
0%
1&
#542
0"
0&
#543
0#
#551
1$
#552
1"
0$
#561
1#
1$
#562
0"
0$
1%
1&
#563
0#
0&
#571
1$
#572
0$
#580
1$
#581
1"
0$
0%
1&
#582
0&
#590
1#
1$
#591
0"
0$
#592
0#
#600
1$
#601
1"
0$
1%
1&
#602
0&
#610
1#
1$
#611
0$
#619
1$
#620
0$
0%
1&
#621
0"
0&
#622
0#
#630
1"
1$
#631
0$
#639
1#
1$
#640
0"
0$
1%
1&
#641
0#
0&
#649
1$
#650
0$
#658
1$
#659
0$
0%
1&
#660
1"
0&
#669
1#
1$
#670
0$
#678
1$
#679
0"
0$
1&
#680
0&
#681
0#
#689
1$
#690
0$
#698
1$
#699
1"
0$
1&
#700
0&
#708
1#
1$
#709
0$
#717
1$
#718
0$
1&
#719
0"
0&
#720
0#
#728
1$
#729
0$
#737
1$
#738
1"
0$
1&
#739
0&
#747
1#
1$
#748
0$
#756
1$
#757
0$
#765
1$
#766
0$
#768
0"
#769
0#
#777
1$
#778
0$
#786
1$
#787
1"
0$
#796
1#
1$
#797
0"
0$
#798
0#
#806
1$
#807
0$
#815
1$
#816
1"
0$
#825
1#
1$
#826
0$
#834
1$
#835
0$
1&
#836
0"
0&
#837
0#
#845
1$
#846
0$
#854
1$
#855
0$
1&
#856
1"
0&
#865
1#
1$
#866
0$
#874
1$
#875
0$
1&
#876
0"
0&
#877
0#
#885
1$
#886
0$
#894
1$
#895
1"
0$
1&
#896
0&
#904
1#
1$
#905
0"
0$
#906
0#
#914
1"
1$
#915
0$
1%
1&
#916
0&
#924
1#
1$
#925
0$
#933
1$
#934
0"
0$
0%
1&
#935
0#
0&
#943
1$
#944
1"
0$
#953
1#
1$
#954
0"
0$
1%
1&
#955
0#
0&
#963
1$
#964
0$
#972
1$
#973
1"
0$
0%
1&
#974
0&
#982
1#
1$
#983
0"
0$
#985
0#
#993
1"
1$
#994
0$
1%
1&
#995
0&
#1002
1#
1$
#1003
0$
#1011
1$
#1012
0$
0%
1&
#1013
0"
0&
#1014
0#
#1022
1"
1$
#1023
0$
#1031
1#
1$
#1032
0"
0$
1%
1&
#1033
0&
#1034
0#
#1042
1$
#1043
0$
#1051
1$
#1052
1"
0$
0%
1&
#1053
0&
#1061
1#
1$
#1062
0"
0$
#1063
0#
#1071
1"
1$
#1072
0$
1%
1&
#1073
0&
#1080
1#
1$
#1081
0$
#1089
1$
#1090
0$
0%
1&
#1091
0"
0&
#1092
0#
#1100
1$
#1101
1"
0$
#1110
1#
1$
#1111
0"
0$
1%
1&
#1112
0#
0&
#1120
1$
#1121
0$
#1129
1$
#1130
1"
0$
0%
1&
#1131
0&
#1139
1#
1$
#1140
0"
0$
#1141
0#
#1149
1$
#1150
1"
0$
1%
1&
#1151
0&
#1159
1#
1$
#1160
0$
#1168
1$
#1169
0$
0%
1&
#1170
0"
0&
#1171
0#
#1179
1"
1$
#1180
0$
#1188
1#
1$
#1189
0"
0$
1%
1&
#1190
0#
0&
#1198
1$
#1199
0$
#1207
1$
#1208
0$
0%
1&
#1209
1"
0&
#1218
1#
1$
#1219
0"
0$
#1220
0#
#1228
1"
1$
#1229
0$
1%
1&
#1230
0&
#1237
1#
1$
#1238
0$
#1246
1$
#1247
0$
0%
1&
#1248
0"
0&
#1249
0#
#1257
1$
#1258
1"
0$
#1267
1#
1$
#1268
0"
0$
1%
1&
#1269
0#
0&
#1277
1$
#1278
0$
#1286
1$
#1287
1"
0$
0%
1&
#1288
0&
#1296
1#
1$
#1297
0$
#1305
1$
#1306
0$
1&
#1307
0"
0&
#1308
0#
#1316
1$
#1317
0$
#1325
1$
#1326
1"
0$
1&
#1327
0&
#1335
1#
1$
#1336
0$
#1344
1$
#1345
0$
1&
#1346
0"
0&
#1347
0#
#1355
1$
#1356
0$
#1364
1$
#1365
0$
1&
#1366
1"
0&
#1375
1#
1$
#1376
0$
#1384
1$
#1385
0$
#1393
1$
#1394
0$
#1395
0"
#1396
0#
#1404
1$
#1405
0$
#1413
1$
#1414
0$
#1422
1$
#1423
0$
#1424
1"
#1433
1#
1$
#1434
0"
0$
#1436
0#
#1444
1"
1$
#1445
0$
#1453
1#
1$
#1454
0$
#1462
1$
#1463
0$
1&
#1464
0"
0&
#1465
0#
#1473
1$
#1474
0$
#1482
1$
#1483
1"
0$
1&
#1484
0&
#1492
1#
1$
#1493
0$
#1501
1$
#1502
0$
1&
#1503
0"
0&
#1504
0#
#1512
1$
#1513
0$
#1521
1$
#1522
1"
0$
1&
#1523
0&
#1531
1#
1$
#1532
0$
#1533
0"
#1534
0#
#1542
1"
1$
#1543
0$
1%
1&
#1544
0&
#1551
1#
1$
#1552
0$
#1560
1$
#1561
0$
0%
1&
#1562
0"
0&
#1563
0#
#1571
1"
1$
#1572
0$
#1580
1#
1$
#1581
0$
1%
1&
#1582
0"
0&
#1583
0#
#1591
1$
#1592
0$
#1600
1$
#1601
1"
0$
0%
1&
#1602
0&
#1610
1#
1$
#1611
0"
0$
#1612
0#
#1620
1"
1$
#1621
0$
1%
1&
#1622
0&
#1630
1#
1$
#1631
0$
#1639
1$
#1640
0"
0$
0%
1&
#1641
0#
0&
#1649
1$
#1650
1"
0$
#1659
1#
1$
#1660
0"
0$
1%
1&
#1661
0#
0&
#1669
1$
#1670
0$
#1678
1$
#1679
1"
0$
0%
1&
#1680
0&
#1688
1#
1$
#1689
0"
0$
#1691
0#
#1699
1"
1$
#1700
0$
1%
1&
#1701
0&
#1708
1#
1$
#1709
0$
#1717
1$
#1718
0$
0%
1&
#1719
0"
0&
#1720
0#
#1728
1"
1$
#1729
0$
#1737
1#
1$
#1738
0"
0$
1%
1&
#1739
0&
#1740
0#
#1748
1$
#1749
0$
#1757
1$
#1758
1"
0$
0%
1&
#1759
0&
#1767
1#
1$
#1768
0"
0$
#1769
0#
#1777
1"
1$
#1778
0$
1%
1&
#1779
0&
#1786
1#
1$
#1787
0$
#1795
1$
#1796
0$
0%
1&
#1797
0"
0&
#1798
0#
#1806
1$
#1807
1"
0$
#1816
1#
1$
#1817
0"
0$
1%
1&
#1818
0#
0&
#1826
1$
#1827
0$
#1835
1$
#1836
1"
0$
0%
1&
#1837
0&
#1845
1#
1$
#1846
0"
0$
#1847
0#
#1855
1$
#1856
1"
0$
1%
1&
#1857
0&
#1865
1#
1$
#1866
0$
#1874
1$
#1875
0$
0%
1&
#1876
0"
0&
#1877
0#
#1885
1"
1$
#1886
0$
#1894
1#
1$
#1895
0"
0$
1%
1&
#1896
0#
0&
#1904
1$
#1905
0$
#1913
1$
#1914
0$
0%
1&
#1915
1"
0&
#1924
1#
1$
#1925
0$
#1933
1$
#1934
0$
1&
#1935
0"
0&
#1936
0#
#1944
1$
#1945
0$
#1953
1$
#1954
1"
0$
1&
#1955
0&
#1963
1#
1$
#1964
0$
#1972
1$
#1973
0$
1&
#1974
0"
0&
#1975
0#
#1983
1$
#1984
0$
#1992
1$
#1993
1"
0$
1&
#1994
0&
#2002
1#
1$
#2003
0$
#2011
1$
#2012
0$
#2020
1$
#2021
0$
#2023
0"
#2024
0#
#2032
1$
#2033
0$
#2041
1$
#2042
1"
0$
#2051
1#
1$
#2052
0"
0$
#2053
0#
#2061
1$
#2062
0$
#2070
1$
#2071
0$
#2072
1"
#2081
1#
1$
#2082
0$
#2090
1$
#2091
0"
0$
1&
#2092
0&
#2093
0#
#2101
1$
#2102
0$
#2110
1$
#2111
1"
0$
1&
#2112
0&
#2120
1#
1$
#2121
0$
#2129
1$
#2130
0$
1&
#2131
0"
0&
#2132
0#
#2140
1$
#2141
0$
#2149
1$
#2150
1"
0$
1&
#2151
0&
#2159
1#
1$
#2160
0"
0$
#2161
0#
#2169
1$
#2170
1"
0$
1%
1&
#2171
0&
#2179
1#
1$
#2180
0$
#2188
1$
#2189
0$
0%
1&
#2190
0"
0&
#2191
0#
#2199
1"
1$
#2200
0$
#2208
1#
1$
#2209
0"
0$
1%
1&
#2210
0#
0&
#2218
1$
#2219
0$
#2227
1$
#2228
1"
0$
0%
1&
#2229
0&
#2237
1#
1$
#2238
0$
#2239
0"
#2240
0#
#2248
1"
1$
#2249
0$
1%
1&
#2250
0&
#2257
1#
1$
#2258
0$
#2266
1$
#2267
0$
0%
1&
#2268
0"
0&
#2269
0#
#2277
1"
1$
#2278
0$
#2286
1#
1$
#2287
0$
1%
1&
#2288
0"
0&
#2289
0#
#2297
1$
#2298
0$
#2306
1$
#2307
1"
0$
0%
1&
#2308
0&
#2316
1#
1$
#2317
0"
0$
#2318
0#
#2326
1"
1$
#2327
0$
1%
1&
#2328
0&
#2336
1#
1$
#2337
0$
#2345
1$
#2346
0"
0$
0%
1&
#2347
0#
0&
#2355
1$
#2356
1"
0$
#2365
1#
1$
#2366
0"
0$
1%
1&
#2367
0#
0&
#2375
1$
#2376
0$
#2384
1$
#2385
1"
0$
0%
1&
#2386
0&
#2394
1#
1$
#2395
0"
0$
#2397
0#
#2404
1$
#2405
1"
0$
1%
1&
#2406
0&
#2414
1#
1$
#2415
0$
#2423
1$
#2424
0$
0%
1&
#2425
0"
0&
#2426
0#
#2434
1"
1$
#2435
0$
#2443
1#
1$
#2444
0"
0$
1%
1&
#2445
0&
#2446
0#
#2454
1$
#2455
0$
#2463
1$
#2464
1"
0$
0%
1&
#2465
0&
#2473
1#
1$
#2474
0"
0$
#2475
0#
#2483
1"
1$
#2484
0$
1%
1&
#2485
0&
#2492
1#
1$
#2493
0$
#2501
1$
#2502
0$
0%
1&
#2503
0"
0&
#2504
0#
#2512
1$
#2513
1"
0$
#2522
1#
1$
#2523
0"
0$
1%
1&
#2524
0#
0&
#2532
1$
#2533
0$
#2541
1$
#2542
1"
0$
0%
1&
#2543
0&
#2551
1#
1$
#2552
0$
#2560
1$
#2561
0$
1&
#2562
0"
0&
#2563
0#
#2571
1$
#2572
0$
#2580
1$
#2581
1"
0$
1&
#2582
0&
#2590
1#
1$
#2591
0$
#2599
1$
#2600
0$
1&
#2601
0"
0&
#2602
0#
#2610
1$
#2611
0$
#2619
1$
#2620
0$
1&
#2621
1"
0&
#2630
1#
1$
#2631
0$
#2639
1$
#2640
0$
#2648
1$
#2649
0$
#2650
0"
#2651
0#
#2659
1$
#2660
0$
#2668
1$
#2669
0$
#2677
1$
#2678
0$
#2679
1"
#2688
1#
1$
#2689
0$
#2690
0"
#2691
0#
#2699
1"
1$
#2700
0$
#2708
1#
1$
#2709
0$
#2717
1$
#2718
0$
1&
#2719
0"
0&
#2720
0#
#2728
1$
#2729
0$
#2737
1$
#2738
1"
0$
1&
#2739
0&
#2747
1#
1$
#2748
0$
#2756
1$
#2757
0$
1&
#2758
0"
0&
#2759
0#
#2767
1$
#2768
0$
#2776
1$
#2777
1"
0$
1&
#2778
0&
#2787
1#
1$
#2788
0"
0$
#2789
0#
#2797
1"
1$
#2798
0$
1%
1&
#2799
0&
#2806
1#
1$
#2807
0$
#2815
1$
#2816
0$
0%
1&
#2817
0"
0&
#2818
0#
#2826
1$
#2827
1"
0$
#2836
1#
1$
#2837
0"
0$
1%
1&
#2838
0#
0&
#2846
1$
#2847
0$
#2855
1$
#2856
1"
0$
0%
1&
#2857
0&
#2865
1#
1$
#2866
0"
0$
#2867
0#
#2875
1$
#2876
1"
0$
1%
1&
#2877
0&
#2885
1#
1$
#2886
0$
#2894
1$
#2895
0"
0$
0%
1&
#2896
0&
#2897
0#
#2905
1"
1$
#2906
0$
#2914
1#
1$
#2915
0"
0$
1%
1&
#2916
0#
0&
#2924
1$
#2925
0$
#2933
1$
#2934
1"
0$
0%
1&
#2935
0&
#2943
1#
1$
#2944
0$
#2945
0"
#2946
0#
#2954
1"
1$
#2955
0$
1%
1&
#2956
0&
#2963
1#
1$
#2964
0$
#2972
1$
#2973
0$
0%
1&
#2974
0"
0&
#2975
0#
#2983
1"
1$
#2984
0$
#2992
1#
1$
#2993
0$
1%
1&
#2994
0"
0&
#2995
0#
#3003
1$
#3004
0$
#3012
1$
#3013
1"
0$
0%
1&
#3014
0&
#3022
1#
1$
#3023
0"
0$
#3024
0#
#3032
1"
1$
#3033
0$
1%
1&
#3034
0&
#3041
1#
1$
#3042
0$
#3050
1$
#3051
0$
0%
1&
#3052
0"
0&
#3053
0#
#3061
1$
#3062
1"
0$
#3071
1#
1$
#3072
0"
0$
1%
1&
#3073
0#
0&
#3081
1$
#3082
0$
#3090
1$
#3091
1"
0$
0%
1&
#3092
0&
#3100
1#
1$
#3101
0"
0$
#3102
0#
#3110
1$
#3111
1"
0$
1%
1&
#3112
0&
#3120
1#
1$
#3121
0$
#3129
1$
#3130
0$
0%
1&
#3131
0"
0&
#3132
0#
#3140
1"
1$
#3141
0$
#3149
1#
1$
#3150
0"
0$
1%
1&
#3151
0&
#3152
0#
#3160
1$
#3161
0$
#3169
1$
#3170
1"
0$
0%
1&
#3171
0&
#3179
1#
1$
#3180
0$
#3188
1$
#3189
0$
1&
#3190
0"
0&
#3191
0#
#3199
1$
#3200
0$
#3208
1$
#3209
1"
0$
1&
#3210
0&
#3218
1#
1$
#3219
0$
#3227
1$
#3228
0$
1&
#3229
0"
0&
#3230
0#
#3238
1$
#3239
0$
#3247
1$
#3248
1"
0$
1&
#3249
0&
#3257
1#
1$
#3258
0$
#3266
1$
#3267
0$
#3275
1$
#3276
0$
#3278
0"
#3279
0#
#3287
1$
#3288
0$
#3296
1$
#3297
1"
0$
#3306
1#
1$
#3307
0"
0$
#3308
0#
#3316
1$
#3317
0$
#3325
1$
#3326
0$
#3327
1"
#3336
1#
1$
#3337
0$
#3345
1$
#3346
0$
1&
#3347
0"
0&
#3348
0#
#3356
1$
#3357
0$
#3365
1$
#3366
1"
0$
1&
#3367
0&
#3375
1#
1$
#3376
0$
#3384
1$
#3385
0$
1&
#3386
0"
0&
#3387
0#
#3395
1$
#3396
0$
#3404
1$
#3405
1"
0$
1&
#3406
0&
#3414
1#
1$
#3415
0"
0$
#3416
0#
#3424
1$
#3425
1"
0$
1%
1&
#3426
0&
#3434
1#
1$
#3435
0$
#3443
1$
#3444
0$
0%
1&
#3445
0"
0&
#3446
0#
#3454
1"
1$
#3455
0$
#3463
1#
1$
#3464
0"
0$
1%
1&
#3465
0#
0&
#3473
1$
#3474
0$
#3482
1$
#3483
1"
0$
0%
1&
#3484
0&
#3493
1#
1$
#3494
0"
0$
#3495
0#
#3503
1"
1$
#3504
0$
1%
1&
#3505
0&
#3512
1#
1$
#3513
0$
#3521
1$
#3522
0$
0%
1&
#3523
0"
0&
#3524
0#
#3532
1$
#3533
1"
0$
#3542
1#
1$
#3543
0"
0$
1%
1&
#3544
0#
0&
#3552
1$
#3553
0$
#3561
1$
#3562
1"
0$
0%
1&
#3563
0&
#3571
1#
1$
#3572
0"
0$
#3573
0#
#3581
1$
#3582
1"
0$
1%
1&
#3583
0&
#3591
1#
1$
#3592
0$
#3600
1$
#3601
0"
0$
0%
1&
#3602
0&
#3603
0#
#3611
1"
1$
#3612
0$
#3620
1#
1$
#3621
0"
0$
1%
1&
#3622
0#
0&
#3630
1$
#3631
0$
#3639
1$
#3640
1"
0$
0%
1&
#3641
0&
#3649
1#
1$
#3650
0$
#3651
0"
#3652
0#
#3660
1"
1$
#3661
0$
1%
1&
#3662
0&
#3669
1#
1$
#3670
0$
#3678
1$
#3679
0$
0%
1&
#3680
0"
0&
#3681
0#
#3689
1"
1$
#3690
0$
#3698
1#
1$
#3699
0$
1%
1&
#3700
0"
0&
#3701
0#
#3709
1$
#3710
0$
#3718
1$
#3719
1"
0$
0%
1&
#3720
0&
#3728
1#
1$
#3729
0"
0$
#3730
0#
#3738
1"
1$
#3739
0$
1%
1&
#3740
0&
#3747
1#
1$
#3748
0$
#3756
1$
#3757
0$
0%
1&
#3758
0"
0&
#3759
0#
#3767
1$
#3768
1"
0$
#3777
1#
1$
#3778
0"
0$
1%
1&
#3779
0#
0&
#3787
1$
#3788
0$
#3796
1$
#3797
1"
0$
0%
1&
#3798
0&
#3806
1#
1$
#3807
0$
#3815
1$
#3816
0$
1&
#3817
0"
0&
#3818
0#
#3826
1$
#3827
0$
#3835
1$
#3836
1"
0$
1&
#3837
0&
#3846
1#
1$
#3847
0$
#3855
1$
#3856
0"
0$
1&
#3857
0&
#3858
0#
#3865
1$
#3866
0$
#3874
1$
#3875
0$
1&
#3876
1"
0&
#3885
1#
1$
#3886
0$
#3894
1$
#3895
0$
#3903
1$
#3904
0$
#3905
0"
#3907
0#
#3915
1$
#3916
0$
#3924
1$
#3925
0$
#3933
1$
#3934
0$
#3935
1"
#3944
1#
1$
#3945
0"
0$
#3946
0#
#3954
1"
1$
#3955
0$
#3963
1#
1$
#3964
0$
#3972
1$
#3973
0$
1&
#3974
0"
0&
#3975
0#
#3983
1$
#3984
0$
#3992
1$
#3993
1"
0$
1&
#3994
0&
#4002
1#
1$
#4003
0$
#4011
1$
#4012
0$
1&
#4013
0"
0&
#4014
0#
#4022
1$
#4023
0$
#4031
1$
#4032
0$
1&
#4033
1"
0&
#4042
1#
1$
#4043
0"
0$
#4044
0#
#4052
1"
1$
#4053
0$
1%
1&
#4054
0&
#4061
1#
1$
#4062
0$
#4070
1$
#4071
0$
0%
1&
#4072
0"
0&
#4073
0#
#4081
1$
#4082
1"
0$
#4091
1#
1$
#4092
0"
0$
1%
1&
#4093
0#
0&
#4101
1$
#4102
0$
#4110
1$
#4111
1"
0$
0%
1&
#4112
0&
#4120
1#
1$
#4121
0"
0$
#4122
0#
#4130
1$
#4131
1"
0$
1%
1&
#4132
0&
#4140
1#
1$
#4141
0$
#4149
1$
#4150
0$
0%
1&
#4151
0"
0&
#4152
0#
#4160
1"
1$
#4161
0$
#4169
1#
1$
#4170
0"
0$
1%
1&
#4171
0#
0&
#4179
1$
#4180
0$
#4188
1$
#4189
1"
0$
0%
1&
#4190
0&
#4199
1#
1$
#4200
0"
0$
#4201
0#
#4209
1"
1$
#4210
0$
1%
1&
#4211
0&
#4218
1#
1$
#4219
0$
#4227
1$
#4228
0$
0%
1&
#4229
0"
0&
#4230
0#
#4238
1"
1$
#4239
0$
#4248
1#
1$
#4249
0"
0$
1%
1&
#4250
0#
0&
#4258
1$
#4259
0$
#4267
1$
#4268
1"
0$
0%
1&
#4269
0&
#4277
1#
1$
#4278
0"
0$
#4279
0#
#4287
1$
#4288
1"
0$
1%
1&
#4289
0&
#4297
1#
1$
#4298
0$
#4306
1$
#4307
0"
0$
0%
1&
#4308
0&
#4309
0#
#4317
1"
1$
#4318
0$
#4326
1#
1$
#4327
0"
0$
1%
1&
#4328
0#
0&
#4336
1$
#4337
0$
#4345
1$
#4346
1"
0$
0%
1&
#4347
0&
#4355
1#
1$
#4356
0"
0$
#4358
0#
#4366
1"
1$
#4367
0$
1%
1&
#4368
0&
#4375
1#
1$
#4376
0$
#4384
1$
#4385
0$
0%
1&
#4386
0"
0&
#4387
0#
#4395
1"
1$
#4396
0$
#4404
1#
1$
#4405
0$
1%
1&
#4406
0"
0&
#4407
0#
#4415
1$
#4416
0$
#4424
1$
#4425
1"
0$
0%
1&
#4426
0&
#4434
1#
1$
#4435
0$
#4443
1$
#4444
0$
1&
#4445
0"
0&
#4446
0#
#4454
1$
#4455
0$
#4463
1$
#4464
1"
0$
1&
#4465
0&
#4473
1#
1$
#4474
0$
#4482
1$
#4483
0$
1&
#4484
0"
0&
#4485
0#
#4493
1$
#4494
0$
#4502
1$
#4503
1"
0$
1&
#4504
0&
#4512
1#
1$
#4513
0$
#4521
1$
#4522
0$
#4530
1$
#4531
0$
#4533
0"
#4534
0#
#4542
1$
#4543
0$
#4551
1$
#4552
1"
0$
#4561
1#
1$
#4562
0"
0$
#4563
0#
#4571
1$
#4572
0$
#4580
1$
#4581
0$
#4582
1"
#4591
1#
1$
#4592
0$
#4600
1$
#4601
0$
1&
#4602
0"
0&
#4603
0#
#4611
1$
#4612
0$
#4620
1$
#4621
1"
0$
1&
#4622
0&
#4630
1#
1$
#4631
0$
#4639
1$
#4640
0$
1&
#4641
0"
0&
#4642
0#
#4650
1$
#4651
0$
#4659
1$
#4660
1"
0$
1&
#4661
0&
#4669
1#
1$
#4670
0"
0$
#4671
0#
#4679
1$
#4680
1"
0$
1%
1&
#4681
0&
#4689
1#
1$
#4690
0$
#4698
1$
#4699
0$
0%
1&
#4700
0"
0&
#4701
0#
#4709
1"
1$
#4710
0$
#4718
1#
1$
#4719
0"
0$
1%
1&
#4720
0#
0&
#4728
1$
#4729
0$
#4737
1$
#4738
0$
0%
1&
#4739
1"
0&
#4748
1#
1$
#4749
0"
0$
#4750
0#
#4758
1"
1$
#4759
0$
1%
1&
#4760
0&
#4767
1#
1$
#4768
0$
#4776
1$
#4777
0$
0%
1&
#4778
0"
0&
#4779
0#
#4787
1$
#4788
1"
0$
#4797
1#
1$
#4798
0"
0$
1%
1&
#4799
0#
0&
#4807
1$
#4808
0$
#4816
1$
#4817
1"
0$
0%
1&
#4818
0&
#4826
1#
1$
#4827
0"
0$
#4828
0#
#4836
1$
#4837
1"
0$
1%
1&
#4838
0&
#4846
1#
1$
#4847
0$
#4855
1$
#4856
0$
0%
1&
#4857
0"
0&
#4858
0#
#4866
1"
1$
#4867
0$
#4875
1#
1$
#4876
0"
0$
1%
1&
#4877
0#
0&
#4885
1$
#4886
0$
#4894
1$
#4895
1"
0$
0%
1&
#4896
0&
#4905
1#
1$
#4906
0"
0$
#4907
0#
#4915
1"
1$
#4916
0$
1%
1&
#4917
0&
#4924
1#
1$
#4925
0$
#4933
1$
#4934
0$
0%
1&
#4935
0"
0&
#4936
0#
#4944
1"
1$
#4945
0$
#4954
1#
1$
#4955
0"
0$
1%
1&
#4956
0#
0&
#4964
1$
#4965
0$
#4973
1$
#4974
1"
0$
0%
1&
#4975
0&
#4983
1#
1$
#4984
0"
0$
#4985
0#
#4993
1$
#4994
1"
0$
1%
1&
#4995
0&
#5003
1#
1$
#5004
0$
#5012
1$
#5013
0"
0$
0%
1&
#5014
0&
#5015
0#
#5023
1"
1$
#5024
0$
#5032
1#
1$
#5033
0"
0$
1%
1&
#5034
0#
0&
#5042
1$
#5043
0$
#5051
1$
#5052
1"
0$
0%
1&
#5053
0&
#5061
1#
1$
#5062
0$
#5070
1$
#5071
0$
1&
#5072
0"
0&
#5073
0#
#5081
1$
#5082
0$
#5090
1$
#5091
0$
1&
#5092
1"
0&
#5101
1#
1$
#5102
0$
#5110
1$
#5111
0$
1&
#5112
0"
0&
#5113
0#
#5121
1$
#5122
0$
#5130
1$
#5131
1"
0$
1&
#5132
0&
#5140
1#
1$
#5141
0$
#5149
1$
#5150
0$
#5158
1$
#5159
0$
#5161
0"
#5162
0#
#5170
1$
#5171
0$
#5179
1$
#5180
0$
#5188
1$
#5189
0$
#5190
1"
#5199
1#
1$
#5200
0"
0$
#5201
0#
#5209
1"
1$
#5210
0$
#5218
1#
1$
#5219
0$
#5227
1$
#5228
0$
1&
#5229
0"
0&
#5230
0#
#5238
1$
#5239
0$
#5247
1$
#5248
1"
0$
1&
#5249
0&
#5258
1#
1$
#5259
0$
#5267
1$
#5268
0"
0$
1&
#5269
0#
0&
#5277
1$
#5278
0$
#5286
1$
#5287
0$
1&
#5288
1"
0&
#5297
1#
1$
#5298
0"
0$
#5299
0#
#5307
1"
1$
#5308
0$
1%
1&
#5309
0&
#5316
1#
1$
#5317
0$
#5325
1$
#5326
0$
0%
1&
#5327
0"
0&
#5328
0#
#5336
1$
#5337
1"
0$
#5346
1#
1$
#5347
0"
0$
1%
1&
#5348
0#
0&
#5356
1$
#5357
0$
#5365
1$
#5366
1"
0$
0%
1&
#5367
0&
#5375
1#
1$
#5376
0"
0$
#5377
0#
#5385
1$
#5386
1"
0$
1%
1&
#5387
0&
#5395
1#
1$
#5396
0$
#5404
1$
#5405
0$
0%
1&
#5406
0"
0&
#5407
0#
#5415
1"
1$
#5416
0$
#5424
1#
1$
#5425
0"
0$
1%
1&
#5426
0#
0&
#5434
1$
#5435
0$
#5443
1$
#5444
0$
0%
1&
#5445
1"
0&
#5454
1#
1$
#5455
0"
0$
#5456
0#
#5464
1"
1$
#5465
0$
1%
1&
#5466
0&
#5473
1#
1$
#5474
0$
#5482
1$
#5483
0$
0%
1&
#5484
0"
0&
#5485
0#
#5493
1$
#5494
1"
0$
#5503
1#
1$
#5504
0"
0$
1%
1&
#5505
0#
0&
#5513
1$
#5514
0$
#5522
1$
#5523
1"
0$
0%
1&
#5524
0&
#5532
1#
1$
#5533
0"
0$
#5534
0#
#5542
1$
#5543
1"
0$
1%
1&
#5544
0&
#5552
1#
1$
#5553
0$
#5561
1$
#5562
0$
0%
1&
#5563
0"
0&
#5564
0#
#5572
1"
1$
#5573
0$
#5581
1#
1$
#5582
0"
0$
1%
1&
#5583
0#
0&
#5591
1$
#5592
0$
#5600
1$
#5601
1"
0$
0%
1&
#5602
0&
#5611
1#
1$
#5612
0"
0$
#5613
0#
#5621
1"
1$
#5622
0$
1%
1&
#5623
0&
#5630
1#
1$
#5631
0$
#5639
1$
#5640
0$
0%
1&
#5641
0"
0&
#5642
0#
#5650
1"
1$
#5651
0$
#5660
1#
1$
#5661
0"
0$
1%
1&
#5662
0#
0&
#5670
1$
#5671
0$
#5679
1$
#5680
1"
0$
0%
1&
#5681
0&
#5689
1#
1$
#5690
0$
#5698
1$
#5699
0$
1&
#5700
0"
0&
#5701
0#
#5709
1$
#5710
0$
#5718
1$
#5719
1"
0$
1&
#5720
0&
#5728
1#
1$
#5729
0$
#5737
1$
#5738
0$
1&
#5739
0"
0&
#5740
0#
#5748
1$
#5749
0$
#5757
1$
#5758
1"
0$
1&
#5759
0&
#5767
1#
1$
#5768
0$
#5776
1$
#5777
0$
#5785
1$
#5786
0$
#5788
0"
#5789
0#
#5797
1$
#5798
0$
#5806
1$
#5807
1"
0$
#5816
1#
1$
#5817
0$
#5818
0"
#5819
0#
#5827
1$
#5828
0$
#5836
1$
#5837
1"
0$
#5846
1#
1$
#5847
0$
#5855
1$
#5856
0$
1&
#5857
0"
0&
#5858
0#
#5866
1$
#5867
0$
#5875
1$
#5876
1"
0$
1&
#5877
0&
#5885
1#
1$
#5886
0$
#5894
1$
#5895
0$
1&
#5896
0"
0&
#5897
0#
#5905
1$
#5906
0$
#5914
1$
#5915
1"
0$
1&
#5916
0&
#5924
1#
1$
#5925
0"
0$
#5926
0#
#5934
1$
#5935
1"
0$
1%
1&
#5936
0&
#5944
1#
1$
#5945
0$
#5953
1$
#5954
0$
0%
1&
#5955
0"
0&
#5956
0#
#5964
1"
1$
#5965
0$
#5973
1#
1$
#5974
0"
0$
1%
1&
#5975
0#
0&
#5983
1$
#5984
0$
#5992
1$
#5993
0$
0%
1&
#5994
1"
0&
#6003
1#
1$
#6004
0"
0$
#6005
0#
#6013
1"
1$
#6014
0$
1%
1&
